{
    "results": [
        {
            "id": 343499,
            "adult": false
        },
        {
            "id": 1517497,
            "adult": false
        },
        {
            "id": 67841,
            "adult": false
        },
        {
            "id": 24905,
            "adult": false
        },
        {
            "id": 1517502,
            "adult": false
        },
        {
            "id": 1517501,
            "adult": true
        },
        {
            "id": 1517206,
            "adult": false
        },
        {
            "id": 1517500,
            "adult": false
        },
        {
            "id": 1414595,
            "adult": false
        },
        {
            "id": 1517499,
            "adult": false
        },
        {
            "id": 339098,
            "adult": false
        },
        {
            "id": 1020047,
            "adult": false
        },
        {
            "id": 1405301,
            "adult": false
        },
        {
            "id": 1517403,
            "adult": false
        },
        {
            "id": 1515139,
            "adult": false
        },
        {
            "id": 884003,
            "adult": false
        },
        {
            "id": 1502629,
            "adult": false
        },
        {
            "id": 1517261,
            "adult": false
        },
        {
            "id": 1284377,
            "adult": false
        },
        {
            "id": 1517232,
            "adult": false
        },
        {
            "id": 1512008,
            "adult": false
        },
        {
            "id": 1323009,
            "adult": false
        },
        {
            "id": 1341665,
            "adult": false
        },
        {
            "id": 1427508,
            "adult": false
        },
        {
            "id": 1442306,
            "adult": false
        },
        {
            "id": 1447771,
            "adult": false
        },
        {
            "id": 1476559,
            "adult": false
        },
        {
            "id": 1481256,
            "adult": false
        },
        {
            "id": 1484413,
            "adult": false
        },
        {
            "id": 1496200,
            "adult": false
        },
        {
            "id": 1497745,
            "adult": false
        },
        {
            "id": 1501342,
            "adult": false
        },
        {
            "id": 1505259,
            "adult": false
        },
        {
            "id": 1506419,
            "adult": false
        },
        {
            "id": 1508319,
            "adult": false
        },
        {
            "id": 1509879,
            "adult": false
        },
        {
            "id": 1511135,
            "adult": false
        },
        {
            "id": 1514815,
            "adult": false
        },
        {
            "id": 1514979,
            "adult": false
        },
        {
            "id": 1515390,
            "adult": false
        },
        {
            "id": 1515399,
            "adult": false
        },
        {
            "id": 1515731,
            "adult": false
        },
        {
            "id": 1515741,
            "adult": false
        },
        {
            "id": 1515757,
            "adult": false
        },
        {
            "id": 1516104,
            "adult": false
        },
        {
            "id": 1516210,
            "adult": false
        },
        {
            "id": 1516785,
            "adult": false
        },
        {
            "id": 1483907,
            "adult": false
        },
        {
            "id": 1489634,
            "adult": false
        },
        {
            "id": 1491136,
            "adult": false
        },
        {
            "id": 1466309,
            "adult": false
        },
        {
            "id": 1472224,
            "adult": false
        },
        {
            "id": 1476740,
            "adult": false
        },
        {
            "id": 1481601,
            "adult": false
        },
        {
            "id": 1490320,
            "adult": false
        },
        {
            "id": 1504971,
            "adult": false
        },
        {
            "id": 1504988,
            "adult": false
        },
        {
            "id": 1507440,
            "adult": false
        },
        {
            "id": 1513904,
            "adult": false
        },
        {
            "id": 1514843,
            "adult": false
        },
        {
            "id": 1516916,
            "adult": false
        },
        {
            "id": 1439630,
            "adult": false
        },
        {
            "id": 1516889,
            "adult": false
        },
        {
            "id": 1516910,
            "adult": false
        },
        {
            "id": 1516994,
            "adult": false
        },
        {
            "id": 1516896,
            "adult": false
        },
        {
            "id": 1516980,
            "adult": false
        },
        {
            "id": 1516983,
            "adult": false
        },
        {
            "id": 1304434,
            "adult": false
        },
        {
            "id": 1517058,
            "adult": false
        },
        {
            "id": 1517328,
            "adult": false
        },
        {
            "id": 1516892,
            "adult": false
        },
        {
            "id": 1517000,
            "adult": false
        },
        {
            "id": 1517008,
            "adult": false
        },
        {
            "id": 1517052,
            "adult": false
        },
        {
            "id": 1517451,
            "adult": false
        },
        {
            "id": 1209775,
            "adult": false
        },
        {
            "id": 1439486,
            "adult": false
        },
        {
            "id": 1517429,
            "adult": false
        },
        {
            "id": 1457188,
            "adult": false
        },
        {
            "id": 1487373,
            "adult": false
        },
        {
            "id": 1517130,
            "adult": false
        },
        {
            "id": 1517070,
            "adult": false
        },
        {
            "id": 1516901,
            "adult": false
        },
        {
            "id": 1517053,
            "adult": false
        },
        {
            "id": 1517073,
            "adult": false
        },
        {
            "id": 717931,
            "adult": false
        },
        {
            "id": 1284945,
            "adult": false
        },
        {
            "id": 1517392,
            "adult": false
        },
        {
            "id": 1517106,
            "adult": false
        },
        {
            "id": 1517322,
            "adult": false
        },
        {
            "id": 340386,
            "adult": false
        },
        {
            "id": 1517485,
            "adult": false
        },
        {
            "id": 303775,
            "adult": false
        },
        {
            "id": 405717,
            "adult": false
        },
        {
            "id": 1123826,
            "adult": false
        },
        {
            "id": 1411380,
            "adult": false
        },
        {
            "id": 1508562,
            "adult": false
        },
        {
            "id": 1517448,
            "adult": false
        },
        {
            "id": 405488,
            "adult": false
        }
    ],
    "page": 1,
    "total_pages": 67,
    "total_results": 6604
}